Session 3: Transforming Data
…
Reminder

To install packages, simply execute the following on your console (dont add this to your R script.):

install.packages("tidyverse")

Take careful note of the conflicts message thats printed when you load the tidyverse. It tells you that dplyr package overwrites some functions in base R. If you want to use the base version of these functions after loading dplyr, youll need to use their full names: stats::filter() and stats::lag().

nycflights13

To explore the basic data manipulation verbs of dplyr, well use nycflights13::flights. This data frame contains all 336,776 flights that departed from New York City in 2013. The data comes from the US Bureau of Transportation Statistics, and is documented in ?flights.

flights

## # A tibble: 336,776 x 19
##     year month   day dep_time sched_dep_time dep_delay arr_time
##    <int> <int> <int>    <int>          <int>     <dbl>    <int>
##  1  2013     1     1      517            515         2      830
##  2  2013     1     1      533            529         4      850
##  3  2013     1     1      542            540         2      923
##  4  2013     1     1      544            545        -1     1004
##  5  2013     1     1      554            600        -6      812
##  6  2013     1     1      554            558        -4      740
##  7  2013     1     1      555            600        -5      913
##  8  2013     1     1      557            600        -3      709
##  9  2013     1     1      557            600        -3      838
## 10  2013     1     1      558            600        -2      753
## # ... with 336,766 more rows, and 12 more variables: sched_arr_time <int>,
## #   arr_delay <dbl>, carrier <chr>, flight <int>, tailnum <chr>,
## #   origin <chr>, dest <chr>, air_time <dbl>, distance <dbl>, hour <dbl>,
## #   minute <dbl>, time_hour <dttm>
…
The first argument is a data frame.

The subsequent arguments describe what to do with the data frame, using the variable names (without quotes).

The result is a new data frame.

Together these properties make it easy to chain together multiple simple steps to achieve a complex result. Lets dive in and see how these verbs work.

Filter rows with filter()

filter() allows you to subset observations based on their values. The first argument is the name of the data frame. The second and subsequent arguments are the expressions that filter the data frame. For example, we can select all flights on January 1st with:

filter(flights, month == 1, day == 1)

## # A tibble: 842 x 19
##     year month   day dep_time sched_dep_time dep_delay arr_time
##    <int> <int> <int>    <int>          <int>     <dbl>    <int>
##  1  2013     1     1      517            515         2      830
##  2  2013     1     1      533            529         4      850
##  3  2013     1     1      542            540         2      923
##  4  2013     1     1      544            545        -1     1004
##  5  2013     1     1      554            600        -6      812
##  6  2013     1     1      554            558        -4      740
##  7  2013     1     1      555            600        -5      913
##  8  2013     1     1      557            600        -3      709
##  9  2013     1     1      557            600        -3      838
## 10  2013     1     1      558            600        -2      753
## # ... with 832 more rows, and 12 more variables: sched_arr_time <int>,
## #   arr_delay <dbl>, carrier <chr>, flight <int>, tailnum <chr>,
## #   origin <chr>, dest <chr>, air_time <dbl>, distance <dbl>, hour <dbl>,
## #   minute <dbl>, time_hour <dttm>

When you run that line of code, dplyr executes the filtering operation and returns a new data frame. dplyr functions never modify their inputs, so if you want to save the result, youll need to use the assignment operator, <-:

jan1 <- filter(flights, month == 1, day == 1)

R either prints out the results, or saves them to a variable. If you want to do both, you can wrap the assignment in parentheses:

(dec25 <- filter(flights, month == 12, day == 25))

## # A tibble: 719 x 19
##     year month   day dep_time sched_dep_time dep_delay arr_time
##    <int> <int> <int>    <int>          <int>     <dbl>    <int>
##  1  2013    12    25      456            500        -4      649
##  2  2013    12    25      524            515         9      805
##  3  2013    12    25      542            540         2      832
##  4  2013    12    25      546            550        -4     1022
##  5  2013    12    25      556            600        -4      730
##  6  2013    12    25      557            600        -3      743
##  7  2013    12    25      557            600        -3      818
##  8  2013    12    25      559            600        -1      855
##  9  2013    12    25      559            600        -1      849
## 10  2013    12    25      600            600         0      850
## # ... with 709 more rows, and 12 more variables: sched_arr_time <int>,
## #   arr_delay <dbl>, carrier <chr>, flight <int>, tailnum <chr>,
## #   origin <chr>, dest <chr>, air_time <dbl>, distance <dbl>, hour <dbl>,
## #   minute <dbl>, time_hour <dttm>
…
filter(df, is.na(x) | x > 1)

## # A tibble: 2 x 1
##       x
##   <dbl>
## 1    NA
## 2     3

Arrange rows with arrange()

arrange() works similarly to filter() except that instead of selecting rows, it changes their order. It takes a data frame and a set of column names (or more complicated expressions) to order by. If you provide more than one column name, each additional column will be used to break ties in the values of preceding columns:

arrange(flights, year, month, day)

## # A tibble: 336,776 x 19
##     year month   day dep_time sched_dep_time dep_delay arr_time
##    <int> <int> <int>    <int>          <int>     <dbl>    <int>
##  1  2013     1     1      517            515         2      830
##  2  2013     1     1      533            529         4      850
##  3  2013     1     1      542            540         2      923
##  4  2013     1     1      544            545        -1     1004
##  5  2013     1     1      554            600        -6      812
##  6  2013     1     1      554            558        -4      740
##  7  2013     1     1      555            600        -5      913
##  8  2013     1     1      557            600        -3      709
##  9  2013     1     1      557            600        -3      838
## 10  2013     1     1      558            600        -2      753
## # ... with 336,766 more rows, and 12 more variables: sched_arr_time <int>,
## #   arr_delay <dbl>, carrier <chr>, flight <int>, tailnum <chr>,
## #   origin <chr>, dest <chr>, air_time <dbl>, distance <dbl>, hour <dbl>,
## #   minute <dbl>, time_hour <dttm>

Use desc() to re-order by a column in descending order:

arrange(flights, desc(arr_delay))

## # A tibble: 336,776 x 19
##     year month   day dep_time sched_dep_time dep_delay arr_time
##    <int> <int> <int>    <int>          <int>     <dbl>    <int>
##  1  2013     1     9      641            900      1301     1242
##  2  2013     6    15     1432           1935      1137     1607
##  3  2013     1    10     1121           1635      1126     1239
##  4  2013     9    20     1139           1845      1014     1457
##  5  2013     7    22      845           1600      1005     1044
##  6  2013     4    10     1100           1900       960     1342
##  7  2013     3    17     2321            810       911      135
##  8  2013     7    22     2257            759       898      121
##  9  2013    12     5      756           1700       896     1058
## 10  2013     5     3     1133           2055       878     1250
## # ... with 336,766 more rows, and 12 more variables: sched_arr_time <int>,
## #   arr_delay <dbl>, carrier <chr>, flight <int>, tailnum <chr>,
## #   origin <chr>, dest <chr>, air_time <dbl>, distance <dbl>, hour <dbl>,
## #   minute <dbl>, time_hour <dttm>
…
Select columns with select()

Its not uncommon to get datasets with hundreds or even thousands of variables. In this case, the first challenge is often narrowing in on the variables youre actually interested in. select() allows you to rapidly zoom in on a useful subset using operations based on the names of the variables.

select() is not terribly useful with the flights data because we only have 19 variables, but you can still get the general idea:

# Select columns by name
select(flights, year, month, day)

## # A tibble: 336,776 x 3
##     year month   day
##    <int> <int> <int>
##  1  2013     1     1
##  2  2013     1     1
##  3  2013     1     1
##  4  2013     1     1
##  5  2013     1     1
##  6  2013     1     1
##  7  2013     1     1
##  8  2013     1     1
##  9  2013     1     1
## 10  2013     1     1
## # ... with 336,766 more rows

# Select all columns between year and day (inclusive)
select(flights, year:day)

## # A tibble: 336,776 x 3
##     year month   day
##    <int> <int> <int>
##  1  2013     1     1
##  2  2013     1     1
##  3  2013     1     1
##  4  2013     1     1
##  5  2013     1     1
##  6  2013     1     1
##  7  2013     1     1
##  8  2013     1     1
##  9  2013     1     1
## 10  2013     1     1
## # ... with 336,766 more rows

# Select all columns except those from year to day (inclusive)
select(flights, -(year:day))

## # A tibble: 336,776 x 16
##    dep_time sched_dep_time dep_delay arr_time sched_arr_time arr_delay
##       <int>          <int>     <dbl>    <int>          <int>     <dbl>
##  1      517            515         2      830            819        11
##  2      533            529         4      850            830        20
##  3      542            540         2      923            850        33
##  4      544            545        -1     1004           1022       -18
##  5      554            600        -6      812            837       -25
##  6      554            558        -4      740            728        12
##  7      555            600        -5      913            854        19
##  8      557            600        -3      709            723       -14
##  9      557            600        -3      838            846        -8
## 10      558            600        -2      753            745         8
## # ... with 336,766 more rows, and 10 more variables: carrier <chr>,
## #   flight <int>, tailnum <chr>, origin <chr>, dest <chr>, air_time <dbl>,
## #   distance <dbl>, hour <dbl>, minute <dbl>, time_hour <dttm>
…
ends_with("xyz"): matches names that end with xyz.

contains("ijk"): matches names that contain ijk.

matches("(.)\\1"): selects variables that match a regular expression. This one matches any variables that contain repeated characters. Youll learn more about regular expressions in [strings].

num_range("x", 1:3) matches x1, x2 and x3.

See ?select for more details.

select() can be used to rename variables, but its rarely useful because it drops all of the variables not explicitly mentioned. Instead, use rename(), which is a variant of select() that keeps all the variables that arent explicitly mentioned:

rename(flights, tail_num = tailnum)

## # A tibble: 336,776 x 19
##     year month   day dep_time sched_dep_time dep_delay arr_time
##    <int> <int> <int>    <int>          <int>     <dbl>    <int>
##  1  2013     1     1      517            515         2      830
##  2  2013     1     1      533            529         4      850
##  3  2013     1     1      542            540         2      923
##  4  2013     1     1      544            545        -1     1004
##  5  2013     1     1      554            600        -6      812
##  6  2013     1     1      554            558        -4      740
##  7  2013     1     1      555            600        -5      913
##  8  2013     1     1      557            600        -3      709
##  9  2013     1     1      557            600        -3      838
## 10  2013     1     1      558            600        -2      753
## # ... with 336,766 more rows, and 12 more variables: sched_arr_time <int>,
## #   arr_delay <dbl>, carrier <chr>, flight <int>, tail_num <chr>,
## #   origin <chr>, dest <chr>, air_time <dbl>, distance <dbl>, hour <dbl>,
## #   minute <dbl>, time_hour <dttm>

Another option is to use select() in conjunction with the everything() helper. This is useful if you have a handful of variables youd like to move to the start of the data frame.

select(flights, time_hour, air_time, everything())

## # A tibble: 336,776 x 19
##    time_hour           air_time  year month   day dep_time sched_dep_time
##    <dttm>                 <dbl> <int> <int> <int>    <int>          <int>
##  1 2013-01-01 05:00:00      227  2013     1     1      517            515
##  2 2013-01-01 05:00:00      227  2013     1     1      533            529
##  3 2013-01-01 05:00:00      160  2013     1     1      542            540
##  4 2013-01-01 05:00:00      183  2013     1     1      544            545
##  5 2013-01-01 06:00:00      116  2013     1     1      554            600
##  6 2013-01-01 05:00:00      150  2013     1     1      554            558
##  7 2013-01-01 06:00:00      158  2013     1     1      555            600
##  8 2013-01-01 06:00:00       53  2013     1     1      557            600
##  9 2013-01-01 06:00:00      140  2013     1     1      557            600
## 10 2013-01-01 06:00:00      138  2013     1     1      558            600
## # ... with 336,766 more rows, and 12 more variables: dep_delay <dbl>,
## #   arr_time <int>, sched_arr_time <int>, arr_delay <dbl>, carrier <chr>,
## #   flight <int>, tailnum <chr>, origin <chr>, dest <chr>, distance <dbl>,
## #   hour <dbl>, minute <dbl>
…
mutate() always adds new columns at the end of your dataset so well start by creating a narrower dataset so we can see the new variables. Remember that when youre in RStudio, the easiest way to see all the columns is View().

flights_sml <- select(flights, 
  year:day, 
  ends_with("delay"), 
  distance, 
  air_time
)
mutate(flights_sml,
  gain = arr_delay - dep_delay,
  speed = distance / air_time * 60
)

## # A tibble: 336,776 x 9
##     year month   day dep_delay arr_delay distance air_time  gain speed
##    <int> <int> <int>     <dbl>     <dbl>    <dbl>    <dbl> <dbl> <dbl>
##  1  2013     1     1         2        11     1400      227     9  370.
##  2  2013     1     1         4        20     1416      227    16  374.
##  3  2013     1     1         2        33     1089      160    31  408.
##  4  2013     1     1        -1       -18     1576      183   -17  517.
##  5  2013     1     1        -6       -25      762      116   -19  394.
##  6  2013     1     1        -4        12      719      150    16  288.
##  7  2013     1     1        -5        19     1065      158    24  404.
##  8  2013     1     1        -3       -14      229       53   -11  259.
##  9  2013     1     1        -3        -8      944      140    -5  405.
## 10  2013     1     1        -2         8      733      138    10  319.
## # ... with 336,766 more rows

Note that you can refer to columns that youve just created:

mutate(flights_sml,
  gain = arr_delay - dep_delay,
  hours = air_time / 60,
  gain_per_hour = gain / hours
)

## # A tibble: 336,776 x 10
##     year month   day dep_delay arr_delay distance air_time  gain hours
##    <int> <int> <int>     <dbl>     <dbl>    <dbl>    <dbl> <dbl> <dbl>
##  1  2013     1     1         2        11     1400      227     9 3.78 
##  2  2013     1     1         4        20     1416      227    16 3.78 
##  3  2013     1     1         2        33     1089      160    31 2.67 
##  4  2013     1     1        -1       -18     1576      183   -17 3.05 
##  5  2013     1     1        -6       -25      762      116   -19 1.93 
##  6  2013     1     1        -4        12      719      150    16 2.5  
##  7  2013     1     1        -5        19     1065      158    24 2.63 
##  8  2013     1     1        -3       -14      229       53   -11 0.883
##  9  2013     1     1        -3        -8      944      140    -5 2.33 
## 10  2013     1     1        -2         8      733      138    10 2.3  
## # ... with 336,766 more rows, and 1 more variable: gain_per_hour <dbl>

If you only want to keep the new variables, use transmute():

transmute(flights,
  gain = arr_delay - dep_delay,
  hours = air_time / 60,
  gain_per_hour = gain / hours
)

## # A tibble: 336,776 x 3
##     gain hours gain_per_hour
##    <dbl> <dbl>         <dbl>
##  1     9 3.78           2.38
##  2    16 3.78           4.23
##  3    31 2.67          11.6 
##  4   -17 3.05          -5.57
##  5   -19 1.93          -9.83
##  6    16 2.5            6.4 
##  7    24 2.63           9.11
##  8   -11 0.883        -12.5 
##  9    -5 2.33          -2.14
## 10    10 2.3            4.35
## # ... with 336,766 more rows
…
There are many functions for creating new variables that you can use with mutate(). The key property is that the function must be vectorised: it must take a vector of values as input, return a vector with the same number of values as output. Theres no way to list every possible function that you might use, but heres a selection of functions that are frequently useful:

Arithmetic operators: +, -, *, /, ^. These are all vectorised, using the so called recycling rules. If one parameter is shorter than the other, it will be automatically extended to be the same length. This is most useful when one of the arguments is a single number: air_time / 60, hours * 60 + minute, etc.

Arithmetic operators are also useful in conjunction with the aggregate functions youll learn about later. For example, x / sum(x) calculates the proportion of a total, and y - mean(y) computes the difference from the mean.

Modular arithmetic: %/% (integer division) and %% (remainder), where x == y * (x %/% y) + (x %% y). Modular arithmetic is a handy tool because it allows you to break integers up into pieces. For example, in the flights dataset, you can compute hour and minute from dep_time with:

transmute(flights,
  dep_time,
  hour = dep_time %/% 100,
  minute = dep_time %% 100
)

## # A tibble: 336,776 x 3
##    dep_time  hour minute
##       <int> <dbl>  <dbl>
##  1      517     5     17
##  2      533     5     33
##  3      542     5     42
##  4      544     5     44
##  5      554     5     54
##  6      554     5     54
##  7      555     5     55
##  8      557     5     57
##  9      557     5     57
## 10      558     5     58
## # ... with 336,766 more rows
…
summarise(flights, delay = mean(dep_delay, na.rm = TRUE))

## # A tibble: 1 x 1
##   delay
##   <dbl>
## 1  12.6

(Well come back to what that na.rm = TRUE means very shortly.)

summarise() is not terribly useful unless we pair it with group_by(). This changes the unit of analysis from the complete dataset to individual groups. Then, when you use the dplyr verbs on a grouped data frame theyll be automatically applied by group. For example, if we applied exactly the same code to a data frame grouped by date, we get the average delay per date:

by_day <- group_by(flights, year, month, day)
summarise(by_day, delay = mean(dep_delay, na.rm = TRUE))

## # A tibble: 365 x 4
## # Groups:   year, month [?]
##     year month   day delay
##    <int> <int> <int> <dbl>
##  1  2013     1     1 11.5 
##  2  2013     1     2 13.9 
##  3  2013     1     3 11.0 
##  4  2013     1     4  8.95
##  5  2013     1     5  5.73
##  6  2013     1     6  7.15
##  7  2013     1     7  5.42
##  8  2013     1     8  2.55
##  9  2013     1     9  2.28
## 10  2013     1    10  2.84
## # ... with 355 more rows
…
